{
  "parent": "block/cube",
  "textures": {
    "down": "feur_builder:blocks/green_log_top",
    "up": "feur_builder:blocks/green_log_top",
    "north": "feur_builder:blocks/green_log",
    "east": "feur_builder:blocks/green_log",
    "south": "feur_builder:blocks/green_log",
    "west": "feur_builder:blocks/green_log",
    "particle": "feur_builder:blocks/green_log_top"
  },
  "render_type": "solid"
}