{
  "parent": "feur_builder:block/black_slab",
  "display": {
    "thirdperson": {
      "rotation": [
        10,
        -45,
        170
      ],
      "translation": [
        0,
        1.5,
        -2.75
      ],
      "scale": [
        0.375,
        0.375,
        0.375
      ]
    }
  }
}